Titanic Analysis : Machine Learning
…
train_set %>% group_by(Age) %>% summarize(Survived = mean(Survived == 1)*100)

## # A tibble: 88 x 2
##      Age Survived
##    <dbl>    <dbl>
##  1  0.42    100  
##  2  0.67    100  
##  3  0.75    100  
##  4  0.83    100  
##  5  0.92    100  
##  6  1        71.4
##  7  2        30  
##  8  3        83.3
##  9  4        70  
## 10  5       100  
## # ... with 78 more rows
…
